mc16_13TeV:mc16_13TeV.361020.Pythia8EvtGen_A14NNPDF23LO_jetjet_JZ0W.recon.AOD.e3569_s3126_r10201
mc16_13TeV:mc16_13TeV.361021.Pythia8EvtGen_A14NNPDF23LO_jetjet_JZ1W.recon.AOD.e3569_s3126_r10201
mc16_13TeV:mc16_13TeV.361022.Pythia8EvtGen_A14NNPDF23LO_jetjet_JZ2W.recon.AOD.e3668_s3126_r10201
mc16_13TeV:mc16_13TeV.361023.Pythia8EvtGen_A14NNPDF23LO_jetjet_JZ3W.recon.AOD.e3668_s3126_r10201
mc16_13TeV:mc16_13TeV.361024.Pythia8EvtGen_A14NNPDF23LO_jetjet_JZ4W.recon.AOD.e3668_s3126_r10201
mc16_13TeV:mc16_13TeV.361025.Pythia8EvtGen_A14NNPDF23LO_jetjet_JZ5W.recon.AOD.e3668_s3126_r10201
mc16_13TeV:mc16_13TeV.361026.Pythia8EvtGen_A14NNPDF23LO_jetjet_JZ6W.recon.AOD.e3569_s3126_r10201
mc16_13TeV:mc16_13TeV.361027.Pythia8EvtGen_A14NNPDF23LO_jetjet_JZ7W.recon.AOD.e3668_s3126_r10201
mc16_13TeV:mc16_13TeV.361028.Pythia8EvtGen_A14NNPDF23LO_jetjet_JZ8W.recon.AOD.e3569_s3126_r10201
mc16_13TeV:mc16_13TeV.361029.Pythia8EvtGen_A14NNPDF23LO_jetjet_JZ9W.recon.AOD.e3569_s3126_r10201
mc16_13TeV:mc16_13TeV.361030.Pythia8EvtGen_A14NNPDF23LO_jetjet_JZ10W.recon.AOD.e3569_s3126_r10201
mc16_13TeV:mc16_13TeV.361031.Pythia8EvtGen_A14NNPDF23LO_jetjet_JZ11W.recon.AOD.e3569_s3126_r10201
mc16_13TeV:mc16_13TeV.361032.Pythia8EvtGen_A14NNPDF23LO_jetjet_JZ12W.recon.AOD.e3668_s3126_r10201
mc16_13TeV:mc16_13TeV.301488.MadGraphPythia8EvtGen_A14NNPDF23LO_RS_G_hh_bbbb_c10_M300.recon.AOD.e3820_s3126_r10201
mc16_13TeV:mc16_13TeV.301489.MadGraphPythia8EvtGen_A14NNPDF23LO_RS_G_hh_bbbb_c10_M400.recon.AOD.e3820_s3126_r10201
mc16_13TeV:mc16_13TeV.301490.MadGraphPythia8EvtGen_A14NNPDF23LO_RS_G_hh_bbbb_c10_M500.recon.AOD.e3820_s3126_r10201
mc16_13TeV:mc16_13TeV.301491.MadGraphPythia8EvtGen_A14NNPDF23LO_RS_G_hh_bbbb_c10_M600.recon.AOD.e3820_s3126_r10201
mc16_13TeV:mc16_13TeV.301492.MadGraphPythia8EvtGen_A14NNPDF23LO_RS_G_hh_bbbb_c10_M700.recon.AOD.e3820_s3126_r10201
mc16_13TeV:mc16_13TeV.301493.MadGraphPythia8EvtGen_A14NNPDF23LO_RS_G_hh_bbbb_c10_M800.recon.AOD.e3820_s3126_r10201
mc16_13TeV:mc16_13TeV.301494.MadGraphPythia8EvtGen_A14NNPDF23LO_RS_G_hh_bbbb_c10_M900.recon.AOD.e3820_s3126_r10201
mc16_13TeV:mc16_13TeV.301495.MadGraphPythia8EvtGen_A14NNPDF23LO_RS_G_hh_bbbb_c10_M1000.recon.AOD.e3820_s3126_r10201
mc16_13TeV:mc16_13TeV.301496.MadGraphPythia8EvtGen_A14NNPDF23LO_RS_G_hh_bbbb_c10_M1100.recon.AOD.e3820_s3126_r10201
mc16_13TeV:mc16_13TeV.301497.MadGraphPythia8EvtGen_A14NNPDF23LO_RS_G_hh_bbbb_c10_M1200.recon.AOD.e3820_s3126_r10201
mc16_13TeV:mc16_13TeV.301498.MadGraphPythia8EvtGen_A14NNPDF23LO_RS_G_hh_bbbb_c10_M1300.recon.AOD.e3820_s3126_r10201
mc16_13TeV:mc16_13TeV.301499.MadGraphPythia8EvtGen_A14NNPDF23LO_RS_G_hh_bbbb_c10_M1400.recon.AOD.e3820_s3126_r10201
mc16_13TeV:mc16_13TeV.301500.MadGraphPythia8EvtGen_A14NNPDF23LO_RS_G_hh_bbbb_c10_M1500.recon.AOD.e3820_s3126_r10201
mc16_13TeV:mc16_13TeV.301501.MadGraphPythia8EvtGen_A14NNPDF23LO_RS_G_hh_bbbb_c10_M1600.recon.AOD.e3820_s3126_r10201
mc16_13TeV:mc16_13TeV.301502.MadGraphPythia8EvtGen_A14NNPDF23LO_RS_G_hh_bbbb_c10_M1800.recon.AOD.e3820_s3126_r10201
mc16_13TeV:mc16_13TeV.301503.MadGraphPythia8EvtGen_A14NNPDF23LO_RS_G_hh_bbbb_c10_M2000.recon.AOD.e3820_s3126_r10201
mc16_13TeV:mc16_13TeV.301504.MadGraphPythia8EvtGen_A14NNPDF23LO_RS_G_hh_bbbb_c10_M2250.recon.AOD.e3820_s3126_r10201
mc16_13TeV:mc16_13TeV.301505.MadGraphPythia8EvtGen_A14NNPDF23LO_RS_G_hh_bbbb_c10_M2500.recon.AOD.e3820_s3126_r10201
mc16_13TeV:mc16_13TeV.301506.MadGraphPythia8EvtGen_A14NNPDF23LO_RS_G_hh_bbbb_c10_M2750.recon.AOD.e3820_s3126_r10201
mc16_13TeV:mc16_13TeV.301507.MadGraphPythia8EvtGen_A14NNPDF23LO_RS_G_hh_bbbb_c10_M3000.recon.AOD.e3820_s3126_r10201
mc16_13TeV:mc16_13TeV.301322.Pythia8EvtGen_A14NNPDF23LO_zprime400_tt.recon.AOD.e4061_s3126_r10201
mc16_13TeV:mc16_13TeV.301323.Pythia8EvtGen_A14NNPDF23LO_zprime500_tt.recon.AOD.e4061_s3126_r10201
mc16_13TeV:mc16_13TeV.301324.Pythia8EvtGen_A14NNPDF23LO_zprime750_tt.recon.AOD.e4061_s3126_r10201
mc16_13TeV:mc16_13TeV.301325.Pythia8EvtGen_A14NNPDF23LO_zprime1000_tt.recon.AOD.e4061_s3126_r10201
mc16_13TeV:mc16_13TeV.301326.Pythia8EvtGen_A14NNPDF23LO_zprime1250_tt.recon.AOD.e4061_s3126_r10201
mc16_13TeV:mc16_13TeV.301327.Pythia8EvtGen_A14NNPDF23LO_zprime1500_tt.recon.AOD.e4061_s3126_r10201
mc16_13TeV:mc16_13TeV.301328.Pythia8EvtGen_A14NNPDF23LO_zprime1750_tt.recon.AOD.e4061_s3126_r10201
mc16_13TeV:mc16_13TeV.301329.Pythia8EvtGen_A14NNPDF23LO_zprime2000_tt.recon.AOD.e4061_s3126_r10201
mc16_13TeV:mc16_13TeV.301330.Pythia8EvtGen_A14NNPDF23LO_zprime2250_tt.recon.AOD.e4061_s3126_r10201
mc16_13TeV:mc16_13TeV.301331.Pythia8EvtGen_A14NNPDF23LO_zprime2500_tt.recon.AOD.e4061_s3126_r10201
mc16_13TeV:mc16_13TeV.301332.Pythia8EvtGen_A14NNPDF23LO_zprime2750_tt.recon.AOD.e4061_s3126_r10201
mc16_13TeV:mc16_13TeV.301333.Pythia8EvtGen_A14NNPDF23LO_zprime3000_tt.recon.AOD.e3723_s3126_r10201
mc16_13TeV:mc16_13TeV.301334.Pythia8EvtGen_A14NNPDF23LO_zprime4000_tt.recon.AOD.e3723_s3126_r10201
mc16_13TeV:mc16_13TeV.301335.Pythia8EvtGen_A14NNPDF23LO_zprime5000_tt.recon.AOD.e3723_s3126_r10201
mc16_13TeV:mc16_13TeV.301254.Pythia8EvtGen_A14NNPDF23LO_Wprime_WZqqqq_m400.recon.AOD.e3749_s3126_r10201
mc16_13TeV:mc16_13TeV.301255.Pythia8EvtGen_A14NNPDF23LO_Wprime_WZqqqq_m600.recon.AOD.e3749_s3126_r10201
mc16_13TeV:mc16_13TeV.301256.Pythia8EvtGen_A14NNPDF23LO_Wprime_WZqqqq_m800.recon.AOD.e3743_s3126_r10201
mc16_13TeV:mc16_13TeV.301257.Pythia8EvtGen_A14NNPDF23LO_Wprime_WZqqqq_m1000.recon.AOD.e3749_s3126_r10201
mc16_13TeV:mc16_13TeV.301258.Pythia8EvtGen_A14NNPDF23LO_Wprime_WZqqqq_m1100.recon.AOD.e3743_s3126_r10201
mc16_13TeV:mc16_13TeV.301259.Pythia8EvtGen_A14NNPDF23LO_Wprime_WZqqqq_m1200.recon.AOD.e3743_s3126_r10201
mc16_13TeV:mc16_13TeV.301260.Pythia8EvtGen_A14NNPDF23LO_Wprime_WZqqqq_m1300.recon.AOD.e3743_s3126_r10201
mc16_13TeV:mc16_13TeV.301261.Pythia8EvtGen_A14NNPDF23LO_Wprime_WZqqqq_m1400.recon.AOD.e3743_s3126_r10201
mc16_13TeV:mc16_13TeV.301262.Pythia8EvtGen_A14NNPDF23LO_Wprime_WZqqqq_m1500.recon.AOD.e3743_s3126_r10201
mc16_13TeV:mc16_13TeV.301263.Pythia8EvtGen_A14NNPDF23LO_Wprime_WZqqqq_m1600.recon.AOD.e3743_s3126_r10201
mc16_13TeV:mc16_13TeV.301264.Pythia8EvtGen_A14NNPDF23LO_Wprime_WZqqqq_m1700.recon.AOD.e3743_s3126_r10201
mc16_13TeV:mc16_13TeV.301265.Pythia8EvtGen_A14NNPDF23LO_Wprime_WZqqqq_m1800.recon.AOD.e3743_s3126_r10201
mc16_13TeV:mc16_13TeV.301266.Pythia8EvtGen_A14NNPDF23LO_Wprime_WZqqqq_m1900.recon.AOD.e3743_s3126_r10201
mc16_13TeV:mc16_13TeV.301267.Pythia8EvtGen_A14NNPDF23LO_Wprime_WZqqqq_m2000.recon.AOD.e3749_s3126_r10201
mc16_13TeV:mc16_13TeV.301268.Pythia8EvtGen_A14NNPDF23LO_Wprime_WZqqqq_m2100.recon.AOD.e3743_s3126_r10201
mc16_13TeV:mc16_13TeV.301269.Pythia8EvtGen_A14NNPDF23LO_Wprime_WZqqqq_m2200.recon.AOD.e3743_s3126_r10201
mc16_13TeV:mc16_13TeV.301270.Pythia8EvtGen_A14NNPDF23LO_Wprime_WZqqqq_m2300.recon.AOD.e3743_s3126_r10201
mc16_13TeV:mc16_13TeV.301271.Pythia8EvtGen_A14NNPDF23LO_Wprime_WZqqqq_m2400.recon.AOD.e3743_s3126_r10201
mc16_13TeV:mc16_13TeV.301272.Pythia8EvtGen_A14NNPDF23LO_Wprime_WZqqqq_m2500.recon.AOD.e3743_s3126_r10201
mc16_13TeV:mc16_13TeV.301273.Pythia8EvtGen_A14NNPDF23LO_Wprime_WZqqqq_m2600.recon.AOD.e3743_s3126_r10201
mc16_13TeV:mc16_13TeV.301274.Pythia8EvtGen_A14NNPDF23LO_Wprime_WZqqqq_m2700.recon.AOD.e3743_s3126_r10201
mc16_13TeV:mc16_13TeV.301275.Pythia8EvtGen_A14NNPDF23LO_Wprime_WZqqqq_m2800.recon.AOD.e3743_s3126_r10201
mc16_13TeV:mc16_13TeV.301276.Pythia8EvtGen_A14NNPDF23LO_Wprime_WZqqqq_m2900.recon.AOD.e3743_s3126_r10201
mc16_13TeV:mc16_13TeV.301277.Pythia8EvtGen_A14NNPDF23LO_Wprime_WZqqqq_m3000.recon.AOD.e3743_s3126_r10201
mc16_13TeV:mc16_13TeV.301278.Pythia8EvtGen_A14NNPDF23LO_Wprime_WZqqqq_m3200.recon.AOD.e3743_s3126_r10201
mc16_13TeV:mc16_13TeV.301279.Pythia8EvtGen_A14NNPDF23LO_Wprime_WZqqqq_m3400.recon.AOD.e3743_s3126_r10201
mc16_13TeV:mc16_13TeV.301280.Pythia8EvtGen_A14NNPDF23LO_Wprime_WZqqqq_m3600.recon.AOD.e3743_s3126_r10201
mc16_13TeV:mc16_13TeV.301281.Pythia8EvtGen_A14NNPDF23LO_Wprime_WZqqqq_m3800.recon.AOD.e3743_s3126_r10201
mc16_13TeV:mc16_13TeV.301282.Pythia8EvtGen_A14NNPDF23LO_Wprime_WZqqqq_m4000.recon.AOD.e3743_s3126_r10201
mc16_13TeV:mc16_13TeV.301283.Pythia8EvtGen_A14NNPDF23LO_Wprime_WZqqqq_m4200.recon.AOD.e3743_s3126_r10201
mc16_13TeV:mc16_13TeV.301284.Pythia8EvtGen_A14NNPDF23LO_Wprime_WZqqqq_m4400.recon.AOD.e3743_s3126_r10201
mc16_13TeV:mc16_13TeV.301285.Pythia8EvtGen_A14NNPDF23LO_Wprime_WZqqqq_m4600.recon.AOD.e3743_s3126_r10201
mc16_13TeV:mc16_13TeV.301286.Pythia8EvtGen_A14NNPDF23LO_Wprime_WZqqqq_m4800.recon.AOD.e3743_s3126_r10201
mc16_13TeV:mc16_13TeV.301287.Pythia8EvtGen_A14NNPDF23LO_Wprime_WZqqqq_m5000.recon.AOD.e3743_s3126_r10201
mc16_13TeV:mc16_13TeV.309450.PowhegPy8EG_NNLOPS_nnlo_30_ggH125_bb_kt200.recon.AOD.e6281_s3126_r10201
